…
Opcin: eliminar ms casos extremos ELSOC especficamente en relacin a las diferencias en las variables de percepcin obrero. Para ello, se genera una variable con la diferencia (absoluta) entre olas

  elsocsalwk$difperob=
    abs(elsocsalwk$perob_2017-elsocsalwk$perob_2016)
  summary(elsocsalwk$difperob)

##     Min.  1st Qu.   Median     Mean  3rd Qu.     Max.     NA's 
##        0    20000    50000   110609   100000 14700000      182

  elsocsalwk %>% 
    select(id,perob_2016,perob_2017,difperob) %>%
    filter(difperob>200000) 

## # A tibble: 183 x 4
##         id perob_2016 perob_2017 difperob
##      <dbl>      <dbl>      <dbl>    <dbl>
##  1 1101022     250000     600000   350000
##  2 1101091     257000    3500000  3243000
##  3 1101151     300000     600000   300000
##  4 1107013     250000    2800009  2550009
##  5 2101032     600000     350000   250000
##  6 2101081     500000     275000   225000
##  7 2101182    2500000     300000  2200000
##  8 2101202     300000    2760000  2460000
##  9 2101223     200000     600000   400000
## 10 2101265     285000     600000   315000
## # ... with 173 more rows
…
Lo que sucede es que eliminando los 183 casos se puede efectivamente subir la correlacin entre olas de percepcin salario gerente a 0.42. Ahora bien, estos 183 casos lamentablemente son especficos a esta correlacin particular, no se refleja ningn cambio en las otras correlaciones. Por ejemplo, en la encuesta FONDECYT la correlacin entre las variables de salario justo de obrero es de 0.88, y aqu sigue siendo extremadamente baja (-0.004)!. Se puede intentar tambin el ejercicio de eliminar los casos inconsistentes en esta correlacin:

  elsocsalwk$difjusob=abs(elsocsalwk$jusob_2017-elsocsalwk$jusob_2016)
  
  summary(elsocsalwk$difjusob)

##      Min.   1st Qu.    Median      Mean   3rd Qu.      Max.      NA's 
##         0     50000    100000   5106790    300000 479910000       165

  elsocsalwk %>% select(id,jusob_2016,jusob_2017,difjusob) %>%  filter(difjusob>500000)

## # A tibble: 196 x 4
##         id jusob_2016 jusob_2017 difjusob
##      <dbl>      <dbl>      <dbl>    <dbl>
##  1 1101083     500000    7500000  7000000
##  2 1101091     500000    7000000  6500000
##  3 1101171     500000    7000000  6500000
##  4 2101033     200000    1000000   800000
##  5 2101093     580000    2000000  1420000
##  6 2101143    8000000     500000  7500000
##  7 2101191     200000     900000   700000
##  8 2101201    4000000     700000  3300000
##  9 2101241    1500000     800000   700000
## 10 3101033    2000000    5000000  3000000
## # ... with 186 more rows
…
0.002

0.135***

0.014

Computed correlation used pearson-method with pairwise-deletion.

Con esto sube considerablemente a 0.5, aunque todava lejos de la encuesta FONDECYT de referencia, que es casi el doble (0.88)

Ahora, cuantos casos se pierden al filtrar por ambos pares de correlacin?

elsocsalwk %>% select(difjusob,difperob) %>%  filter(difperob>200000 | difjusob>500000)

## # A tibble: 339 x 2
##    difjusob difperob
##       <dbl>    <dbl>
##  1        0   350000
##  2  7000000    50000
##  3  6500000  3243000
##  4   250000   300000
##  5  6500000    50000
##  6    50000  2550009
##  7   150000   250000
##  8   800000    65000
##  9    50000   225000
## 10  1420000    56000
## # ... with 329 more rows
…
